Farris et al gene set enrichment data.frames — EnrichmentDFL • farrisdata
…
# If you have the tibble package, it has a clean display
if (require(tibble)) {
   print(tibble::tibble(EnrichmentDFL[[1]]))
}
#> Loading required package: tibble
#> # A tibble: 3,539 x 1
#>    `EnrichmentDFL[… $`P-value` $pathGenes $geneHits $itemsetID $Source $Name
#>    <chr>                 <dbl>      <dbl>     <dbl> <chr>      <chr>   <chr>
#>  1 CA2-CA3_CBup       1.12e-17       1796       124 M14463     TFT     AACT…
#>  2 CA2-CA3_CBup       1.24e-14       2348       140 M5864      TFT     CAGG…
#>  3 CA2-CA3_CBup       1.48e-12        412        44 M1351      CGP     SCHA…
#>  4 CA2-CA3_CBup       7.53e-12        667        57 M10961     CGP     GOZG…
#>  5 CA2-CA3_CBup       2.80e-11        398        41 M15981     CGP     RIGG…
#>  6 CA2-CA3_CBup       5.27e- 9        628        49 M4960      CGP     SMID…
#>  7 CA2-CA3_CBup       1.21e- 8        273        29 M735       CP:REA… REAC…
#>  8 CA2-CA3_CBup       3.55e- 8        411        36 M1954      CGP     MIKK…
#>  9 CA2-CA3_CBup       3.61e- 8        190        23 M2817      CGP     STAR…
#> 10 CA2-CA3_CBup       6.31e- 8       1005        64 M10371     CGP     BENP…
#> # … with 3,529 more rows, and 3 more variables: $Description <chr>,
#> #   $Category <chr>, $geneNames <chr>
…
